{
  "workbench.colorTheme": "Gruvbox Dark Hard",
  "editor.suggestSelection": "first",
  "vsintellicode.modify.editor.suggestSelection": "automaticallyOverrodeDefaultValue",
  "editor.formatOnPaste": true,
  "python.jediEnabled": false,
  "files.exclude": {
    "**/*.jsx.html": true,
    "**/*.map": true,
    "**/*.pyc": true,
    "**/coverage": true,
    "**/lcov-report": true,
    "**/yarn-error.log": true,
    "**/yarn.lock": true
  },
  "editor.tabSize": 2,
  "search.exclude": {
    "**/env": true,
    "node_modules": true
  },
  "workbench.editor.enablePreview": false,
  "editor.fontFamily": "Source Code Pro, Menlo, Monaco, 'Courier New', monospace",
  "editor.minimap.enabled": false,
  "eslint.alwaysShowStatus": true,
  "editor.codeActionsOnSave": {
    // For ESLint
    "source.fixAll.eslint": true
  },
  "prettier.packageManager": "yarn",
  "prettier.disableLanguages": [".py"],
  "python.formatting.blackPath": "/Users/williamwung/.pyenv/shims/black",
  "[javascript]": {
    "editor.formatOnSave": false,
    "editor.defaultFormatter": "esbenp.prettier-vscode"
  },
  "[javascriptreact]": {
    "editor.formatOnSave": false,
    "editor.defaultFormatter": "esbenp.prettier-vscode"
  },
  "[markdown]": {
    "editor.defaultFormatter": "yzhang.markdown-all-in-one"
  },
  "vim.leader": ",",
  "editor.lineNumbers": "on",
  "eslint.format.enable": true,
  "python.languageServer": "Pylance",
  "relativePath.removeExtension": true,
  "[typescript]": {
    "editor.defaultFormatter": "esbenp.prettier-vscode"
  },
  "[typescriptreact]": {
    "editor.defaultFormatter": "esbenp.prettier-vscode"
  },
  "workbench.editorAssociations": {
    "*.ipynb": "jupyter-notebook"
  },
  "tabnine.experimentalAutoImports": true,
  "editor.cursorStyle": "line",
  "editor.insertSpaces": false,
  "editor.wordSeparators": "/\\()\"':,.;<>~!@#$%^&*|+=[]{}`?-",
  "editor.wordWrap": "off",
  "[json]": {
    "editor.defaultFormatter": "esbenp.prettier-vscode"
  },
  "workbench.activityBar.visible": false,
  "path-intellisense.absolutePathToWorkspace": true,
  "path-intellisense.mappings": {
    "@": "${workspaceRoot}/src"
  },
  "editor.formatOnSave": true,
  "prettier.singleQuote": true,
  "prettier.trailingComma": "all",
  "sort-imports.on-save": false,
  "editor.bracketPairColorization.enabled": true,
  "editor.linkedEditing": true
}

